[
  {
    "title": "test",
    "description": "testgrgs",
    "reporter": "5dc4408e5aabf906c34c31d6",
    "location": {
      "type": "Point",
      "coordinates": [
        12.123456,
        13.134578
      ]
    }
  }
]
